<?xml version="1.0" encoding="UTF-8" standalone="no"?>
<svg width="16px" height="16px" viewBox="0 0 16 16" version="1.1" xmlns="http://www.w3.org/2000/svg" xmlns:xlink="http://www.w3.org/1999/xlink" xmlns:sketch="http://www.bohemiancoding.com/sketch/ns">
    <!-- Generator: Sketch 3.1.1 (8761) - http://www.bohemiancoding.com/sketch -->
    <title>alpine</title>
    <desc>Created with Sketch.</desc>
    <defs></defs>
    <g id="production" stroke="none" stroke-width="1" fill="none" fill-rule="evenodd" sketch:type="MSPage">
        <g id="alpine" sketch:type="MSArtboardGroup" fill="#000000">
            <path d="M13.387,13.778 C13.144,13.956 12.772,13.98 12.621,13.828 L6.257,7.465 C6.062,7.269 5.746,7.269 5.55,7.465 C5.355,7.66 5.355,7.977 5.55,8.172 L11.914,14.535 C12.189,14.81 12.551,14.929 12.917,14.929 C13.299,14.929 13.685,14.799 13.977,14.585 C14.2,14.422 14.248,14.109 14.085,13.887 C13.923,13.664 13.61,13.614 13.387,13.778 Z M9.387,13.778 C9.144,13.956 8.772,13.98 8.621,13.828 L2.257,7.465 C2.062,7.269 1.746,7.269 1.55,7.465 C1.355,7.66 1.355,7.977 1.55,8.172 L7.914,14.535 C8.189,14.81 8.551,14.929 8.916,14.929 C9.299,14.929 9.685,14.799 9.978,14.585 C10.2,14.422 10.249,14.109 10.085,13.887 C9.923,13.664 9.61,13.614 9.387,13.778 Z M14.389,6.975 L9.439,2.025 L9.793,1.672 C9.988,1.477 9.988,1.16 9.793,0.965 C9.598,0.769 9.281,0.769 9.086,0.965 L8.732,1.319 L8.378,0.965 C8.183,0.769 7.867,0.769 7.671,0.965 C7.476,1.16 7.476,1.477 7.671,1.672 L8.025,2.025 L7.671,2.379 C7.476,2.574 7.476,2.891 7.671,3.086 C7.769,3.184 7.897,3.232 8.025,3.232 C8.153,3.232 8.281,3.184 8.378,3.086 L8.732,2.732 L13.682,7.682 C13.78,7.779 13.908,7.828 14.036,7.828 C14.164,7.828 14.292,7.779 14.389,7.682 C14.585,7.486 14.585,7.17 14.389,6.975 Z M3.671,3.086 C3.769,3.184 3.897,3.232 4.025,3.232 C4.153,3.232 4.281,3.184 4.378,3.086 L4.732,2.732 L9.682,7.682 C9.78,7.779 9.908,7.828 10.036,7.828 C10.164,7.828 10.292,7.779 10.389,7.682 C10.584,7.486 10.584,7.17 10.389,6.975 L5.439,2.025 L5.793,1.672 C5.988,1.477 5.988,1.16 5.793,0.965 C5.598,0.769 5.281,0.769 5.086,0.965 L4.732,1.319 L4.378,0.965 C4.183,0.769 3.867,0.769 3.671,0.965 C3.476,1.16 3.476,1.477 3.671,1.672 L4.025,2.025 L3.671,2.379 C3.476,2.574 3.476,2.891 3.671,3.086 Z" id="Fill-1" sketch:type="MSShapeGroup"></path>
        </g>
    </g>
</svg>