<?xml version="1.0" encoding="UTF-8" standalone="no"?>
<svg width="16px" height="16px" viewBox="0 0 16 16" version="1.1" xmlns="http://www.w3.org/2000/svg" xmlns:xlink="http://www.w3.org/1999/xlink" xmlns:sketch="http://www.bohemiancoding.com/sketch/ns">
    <!-- Generator: Sketch 3.1.1 (8761) - http://www.bohemiancoding.com/sketch -->
    <title>arrow-up</title>
    <desc>Created with Sketch.</desc>
    <defs></defs>
    <g id="production" stroke="none" stroke-width="1" fill="none" fill-rule="evenodd" sketch:type="MSPage">
        <g id="arrow-up" sketch:type="MSArtboardGroup" fill="#000000">
            <path d="M11.85425,5.14525 L8.85425,2.14525 C8.80725,2.09925 8.75225,2.06325 8.69125,2.03825 C8.56925,1.98725 8.43125,1.98725 8.30925,2.03825 C8.24925,2.06225 8.19625,2.09825 8.15025,2.14325 C8.14925,2.14425 8.14825,2.14425 8.14625,2.14525 L5.14625,5.14525 C4.95125,5.34125 4.95125,5.65725 5.14625,5.85225 C5.34225,6.04825 5.65825,6.04825 5.85425,5.85225 L8.00025,3.70625 L8.00025,12.49925 C8.00025,12.77525 8.22425,12.99925 8.50025,12.99925 C8.77625,12.99925 9.00025,12.77525 9.00025,12.49925 L9.00025,3.70625 L11.14625,5.85225 C11.34225,6.04825 11.65825,6.04825 11.85425,5.85225 C12.04925,5.65725 12.04925,5.34125 11.85425,5.14525" id="Imported-Layers" sketch:type="MSShapeGroup"></path>
        </g>
    </g>
</svg>