<?xml version="1.0" encoding="UTF-8" standalone="no"?>
<svg width="16px" height="16px" viewBox="0 0 16 16" version="1.1" xmlns="http://www.w3.org/2000/svg" xmlns:xlink="http://www.w3.org/1999/xlink" xmlns:sketch="http://www.bohemiancoding.com/sketch/ns">
    <!-- Generator: Sketch 3.1.1 (8761) - http://www.bohemiancoding.com/sketch -->
    <title>basket</title>
    <desc>Created with Sketch.</desc>
    <defs></defs>
    <g id="production" stroke="none" stroke-width="1" fill="none" fill-rule="evenodd" sketch:type="MSPage">
        <g id="basket" sketch:type="MSArtboardGroup" fill="#000000">
            <path d="M8,0 C7.935,0 7.873,0.008 7.809,0.01 C7.778,0.011 7.748,0.008 7.718,0.014 C3.438,0.165 0,3.684 0,8 C0,12.411 3.589,16 8,16 C12.411,16 16,12.411 16,8 C16,3.588 12.411,0 8,0 L8,0 Z M14.434,5.246 C13.033,5.136 11.632,5.182 10.268,5.35 C10.172,4.86 10.054,4.379 9.919,3.906 C10.933,3.685 11.792,3.247 12.382,2.549 C13.268,3.263 13.979,4.187 14.434,5.246 L14.434,5.246 Z M7.566,1.022 C7.979,1.658 8.326,2.348 8.604,3.082 C7.24,3.156 5.612,2.902 3.949,2.302 C4.983,1.565 6.223,1.105 7.566,1.022 L7.566,1.022 Z M8.754,1.042 C9.77,1.152 10.717,1.484 11.556,1.981 C11.113,2.46 10.442,2.785 9.615,2.956 C9.376,2.288 9.094,1.645 8.754,1.042 L8.754,1.042 Z M3.077,3.031 C4.714,3.685 6.528,4.087 8.168,4.087 C8.427,4.087 8.68,4.075 8.929,4.054 C9.067,4.523 9.182,5.004 9.279,5.494 C6.048,6.035 3.104,7.218 1.027,8.539 C1.014,8.361 1,8.182 1,8 C1,6.059 1.796,4.3 3.077,3.031 L3.077,3.031 Z M1.198,9.625 C3.189,8.268 6.162,7.025 9.449,6.478 C9.561,7.249 9.63,8.032 9.666,8.815 C9.36,8.898 9.06,9.004 8.772,9.154 C7.328,9.91 6.177,11.517 5.336,12.689 C5.004,13.153 4.589,13.731 4.476,13.808 C4.398,13.827 4.332,13.867 4.275,13.916 C2.753,12.954 1.629,11.425 1.198,9.625 L1.198,9.625 Z M5.24,14.431 C5.48,14.188 5.753,13.825 6.149,13.272 C6.931,12.181 8.002,10.687 9.236,10.041 C9.384,9.963 9.539,9.909 9.694,9.855 C9.709,11.599 9.578,13.307 9.389,14.817 C9.387,14.832 9.393,14.845 9.392,14.86 C8.942,14.951 8.477,15 8,15 C7.02,15 6.087,14.796 5.24,14.431 L5.24,14.431 Z M10.426,14.558 C10.601,13.053 10.716,11.38 10.689,9.669 C11.914,9.62 13.19,10.19 14.114,11.297 C14.126,11.311 14.143,11.318 14.156,11.33 C13.351,12.812 12.023,13.965 10.426,14.558 L10.426,14.558 Z M14.585,10.351 C13.486,9.209 12.057,8.62 10.657,8.673 C10.618,7.891 10.549,7.109 10.436,6.336 C11.857,6.165 13.319,6.127 14.776,6.275 C14.917,6.828 15,7.404 15,8 C15,8.826 14.849,9.615 14.585,10.351 L14.585,10.351 Z" id="Imported-Layers" sketch:type="MSShapeGroup"></path>
        </g>
    </g>
</svg>