<?xml version="1.0" encoding="UTF-8" standalone="no"?>
<svg width="16px" height="16px" viewBox="0 0 16 16" version="1.1" xmlns="http://www.w3.org/2000/svg" xmlns:xlink="http://www.w3.org/1999/xlink" xmlns:sketch="http://www.bohemiancoding.com/sketch/ns">
    <!-- Generator: Sketch 3.1.1 (8761) - http://www.bohemiancoding.com/sketch -->
    <title>calendar</title>
    <desc>Created with Sketch.</desc>
    <defs></defs>
    <g id="production" stroke="none" stroke-width="1" fill="none" fill-rule="evenodd" sketch:type="MSPage">
        <g id="calendar" sketch:type="MSArtboardGroup" fill="#000000">
            <path d="M1,2.99188419 L1,14.0081158 C1,15.1082031 1.89339733,16 2.99188419,16 L14.0081158,16 C15.1082031,16 16,15.1066027 16,14.0081158 L16,2.99188419 C16,1.89179693 15.1066027,1 14.0081158,1 L2.99188419,1 C1.89179693,1 1,1.89339733 1,2.99188419 Z M14.0081158,2 C14.5549948,2 15,2.44475835 15,2.99188419 L15,14.0081158 C15,14.5549948 14.5552417,15 14.0081158,15 L2.99188419,15 C2.44500518,15 2,14.5552417 2,14.0081158 L2,2.99188419 C2,2.44500518 2.44475835,2 2.99188419,2 L14.0081158,2 Z M12.5,0 C12.2238576,0 12,0.231933594 12,0.5 L12,1 L13,1 L13,0.5 C13,0.223857625 12.7680664,0 12.5,0 Z M12.5,3 C12.2238576,3 12,2.76806641 12,2.5 L12,2 L13,2 L13,2.5 C13,2.77614237 12.7680664,3 12.5,3 Z M4.5,0 C4.22385763,0 4,0.231933594 4,0.5 L4,1 L5,1 L5,0.5 C5,0.223857625 4.76806641,0 4.5,0 Z M4.5,3 C4.22385763,3 4,2.76806641 4,2.5 L4,2 L5,2 L5,2.5 C5,2.77614237 4.76806641,3 4.5,3 Z M2,4 L2,5 L15,5 L15,4 L2,4 Z" id="Rectangle-3" sketch:type="MSShapeGroup"></path>
            <circle id="Oval-44" sketch:type="MSShapeGroup" cx="10" cy="13" r="1"></circle>
            <circle id="Oval-43" sketch:type="MSShapeGroup" cx="7" cy="13" r="1"></circle>
            <circle id="Oval-42" sketch:type="MSShapeGroup" cx="4" cy="13" r="1"></circle>
            <circle id="Oval-41" sketch:type="MSShapeGroup" cx="13" cy="10" r="1"></circle>
            <circle id="Oval-40" sketch:type="MSShapeGroup" cx="10" cy="10" r="1"></circle>
            <circle id="Oval-39" sketch:type="MSShapeGroup" cx="7" cy="10" r="1"></circle>
            <circle id="Oval-38" sketch:type="MSShapeGroup" cx="4" cy="10" r="1"></circle>
            <circle id="Oval-37" sketch:type="MSShapeGroup" cx="13" cy="7" r="1"></circle>
            <circle id="Oval-36" sketch:type="MSShapeGroup" cx="10" cy="7" r="1"></circle>
            <circle id="Oval-46" sketch:type="MSShapeGroup" cx="7" cy="7" r="1"></circle>
        </g>
    </g>
</svg>