<?xml version="1.0" encoding="UTF-8" standalone="no"?>
<svg width="16px" height="16px" viewBox="0 0 16 16" version="1.1" xmlns="http://www.w3.org/2000/svg" xmlns:xlink="http://www.w3.org/1999/xlink" xmlns:sketch="http://www.bohemiancoding.com/sketch/ns">
    <!-- Generator: Sketch 3.1.1 (8761) - http://www.bohemiancoding.com/sketch -->
    <title>cart</title>
    <desc>Created with Sketch.</desc>
    <defs></defs>
    <g id="production" stroke="none" stroke-width="1" fill="none" fill-rule="evenodd" sketch:type="MSPage">
        <g id="cart" sketch:type="MSArtboardGroup" fill="#000000">
            <path d="M11.5,13.25 C11.5,12.836 11.836,12.5 12.25,12.5 C12.664,12.5 13,12.836 13,13.25 C13,13.664 12.664,14 12.25,14 C11.836,14 11.5,13.664 11.5,13.25 L11.5,13.25 Z M14,13.25 C14,12.283 13.216,11.5 12.25,11.5 C11.284,11.5 10.5,12.283 10.5,13.25 C10.5,14.216 11.284,15 12.25,15 C13.216,15 14,14.216 14,13.25 L14,13.25 Z" id="Fill-1" sketch:type="MSShapeGroup"></path>
            <path d="M5,13.25 C5,12.836 5.336,12.5 5.75,12.5 C6.164,12.5 6.5,12.836 6.5,13.25 C6.5,13.664 6.164,14 5.75,14 C5.336,14 5,13.664 5,13.25 L5,13.25 Z M7.5,13.25 C7.5,12.283 6.716,11.5 5.75,11.5 C4.784,11.5 4,12.283 4,13.25 C4,14.216 4.784,15 5.75,15 C6.716,15 7.5,14.216 7.5,13.25 L7.5,13.25 Z" id="Fill-2" sketch:type="MSShapeGroup"></path>
            <path d="M14.994,3 L2.518,3 C2.508,2.98 2.498,2.971 2.487,2.96 L1.974,1.342 C1.906,1.138 1.715,1 1.5,1 L0.5,1 C0.224,1 0,1.224 0,1.5 C0,1.776 0.224,2 0.5,2 L1.134,2 L2.282,5.613 C2.285,5.621 2.288,5.619 2.291,5.622 L3.426,9.673 C3.629,10.417 4.397,11 5.165,11 L13.495,11 C14.008,11 14.489,10.624 14.605,10.124 L15.875,4.101 C16.01,3.515 15.6,3 14.994,3 L14.994,3 Z M13.63,9.899 C13.62,9.942 13.546,10 13.495,10 L5.165,10 C4.846,10 4.474,9.718 4.39,9.41 C4.39,9.41 3.403,5.816 2.852,4 L14.874,4 L13.63,9.899 L13.63,9.899 Z" id="Fill-3" sketch:type="MSShapeGroup"></path>
        </g>
    </g>
</svg>