<?xml version="1.0" encoding="UTF-8" standalone="no"?>
<svg width="16px" height="16px" viewBox="0 0 16 16" version="1.1" xmlns="http://www.w3.org/2000/svg" xmlns:xlink="http://www.w3.org/1999/xlink" xmlns:sketch="http://www.bohemiancoding.com/sketch/ns">
    <!-- Generator: Sketch 3.1.1 (8761) - http://www.bohemiancoding.com/sketch -->
    <title>chat</title>
    <desc>Created with Sketch.</desc>
    <defs></defs>
    <g id="production" stroke="none" stroke-width="1" fill="none" fill-rule="evenodd" sketch:type="MSPage">
        <g id="chat" sketch:type="MSArtboardGroup" fill="#000000">
            <path d="M7.63210317,0 C3.49010317,0 0.132103174,3.358 0.132103174,7.5 C0.132103174,9.117 0.644103174,10.615 1.51410317,11.84 C1.16410317,12.389 1.29610317,12.43 0.873103174,12.924 C0.600103174,13.244 0.400103174,13.459 0.298103174,13.561 C-0.438896826,14.299 0.303103174,15.531 1.30010317,15.224 C1.34810317,15.209 1.44310317,15.18 1.57610317,15.14 C1.79810317,15.072 2.04910317,14.997 2.32110317,14.916 C2.64510317,14.819 3.66610317,14.624 4.76010317,14.43 C5.64410317,14.797 6.61410317,15 7.63210317,15 C11.7741032,15 15.1321032,11.642 15.1321032,7.5 C15.1321032,3.358 11.7741032,0 7.63210317,0 L7.63210317,0 Z M7.63210317,14 C6.70110317,14 5.81610317,13.804 5.01510317,13.452 C3.14410317,13.839 1.16810317,14.295 1.16810317,14.295 C1.01610317,14.341 0.931103174,14.367 0.931103174,14.367 C0.931103174,14.367 0.992103174,14.306 1.10310317,14.186 C1.10310317,14.186 2.12010317,12.717 2.45210317,12.236 C2.55610317,12.086 2.64810317,11.929 2.72910317,11.768 C1.73510317,10.626 1.13210317,9.133 1.13210317,7.5 C1.13210317,3.91 4.04210317,1 7.63210317,1 C11.2221032,1 14.1321032,3.91 14.1321032,7.5 C14.1321032,11.09 11.2221032,14 7.63210317,14 L7.63210317,14 Z" id="Imported-Layers" sketch:type="MSShapeGroup"></path>
        </g>
    </g>
</svg>