<?xml version="1.0" encoding="UTF-8" standalone="no"?>
<svg width="16px" height="16px" viewBox="0 0 16 16" version="1.1" xmlns="http://www.w3.org/2000/svg" xmlns:xlink="http://www.w3.org/1999/xlink" xmlns:sketch="http://www.bohemiancoding.com/sketch/ns">
    <!-- Generator: Sketch 3.1.1 (8761) - http://www.bohemiancoding.com/sketch -->
    <title>clock</title>
    <desc>Created with Sketch.</desc>
    <defs></defs>
    <g id="production" stroke="none" stroke-width="1" fill="none" fill-rule="evenodd" sketch:type="MSPage">
        <g id="clock" sketch:type="MSArtboardGroup" fill="#000000">
            <path d="M16,8 C16,3.581722 12.418278,0 8,0 C3.581722,0 0,3.581722 0,8 C0,12.418278 3.581722,16 8,16 C12.418278,16 16,12.418278 16,8 Z M1,8 C1,4.13400675 4.13400675,1 8,1 C11.8659932,1 15,4.13400675 15,8 C15,11.8659932 11.8659932,15 8,15 C4.13400675,15 1,11.8659932 1,8 Z" id="Oval-32" sketch:type="MSShapeGroup"></path>
            <path d="M7.5,8 C7.5,8.27614237 7.72385763,8.5 8,8.5 L11.0000002,8.5 C11.2761426,8.5 11.5000002,8.27614237 11.5000002,8 C11.5000002,7.72385763 11.2761426,7.5 11.0000002,7.5 L8,7.5 L8.5,8 L8.5,2.5 C8.5,2.22385763 8.27614237,2 8,2 C7.72385763,2 7.5,2.22385763 7.5,2.5 L7.5,8 Z" id="Line" sketch:type="MSShapeGroup"></path>
        </g>
    </g>
</svg>