<?xml version="1.0" encoding="UTF-8" standalone="no"?>
<svg width="16px" height="16px" viewBox="0 0 16 16" version="1.1" xmlns="http://www.w3.org/2000/svg" xmlns:xlink="http://www.w3.org/1999/xlink" xmlns:sketch="http://www.bohemiancoding.com/sketch/ns">
    <!-- Generator: Sketch 3.1.1 (8761) - http://www.bohemiancoding.com/sketch -->
    <title>crosscountry</title>
    <desc>Created with Sketch.</desc>
    <defs></defs>
    <g id="production" stroke="none" stroke-width="1" fill="none" fill-rule="evenodd" sketch:type="MSPage">
        <g id="crosscountry" sketch:type="MSArtboardGroup" fill="#000000">
            <path d="M15.577,10.006 C15.301,9.965 15.048,10.15 15.006,10.423 C14.96,10.72 14.714,11 14.5,11 L5.5,11 C5.224,11 5,11.224 5,11.5 C5,11.776 5.224,12 5.5,12 L14.5,12 C15.296,12 15.885,11.276 15.994,10.577 C16.037,10.305 15.85,10.049 15.577,10.006 Z M9.288,14.436 C9.1,14.67 8.747,14.789 8.561,14.684 L0.767,10.184 C0.528,10.044 0.222,10.127 0.084,10.366 C-0.054,10.606 0.028,10.911 0.267,11.049 L8.061,15.549 C8.271,15.671 8.499,15.725 8.726,15.725 C9.243,15.725 9.758,15.447 10.066,15.063 C10.24,14.849 10.206,14.534 9.991,14.36 C9.776,14.189 9.461,14.222 9.288,14.436 Z M9.5,9 L10,9 L10,9.5 C10,9.776 10.224,10 10.5,10 C10.776,10 11,9.776 11,9.5 L11,9 L11.5,9 C11.776,9 12,8.776 12,8.5 C12,8.224 11.776,8 11.5,8 L11,8 L11,1 C11,0.724 10.776,0.5 10.5,0.5 C10.224,0.5 10,0.724 10,1 L10,8 L9.5,8 C9.224,8 9,8.224 9,8.5 C9,8.776 9.224,9 9.5,9 Z M1.951,8.678 L2.384,8.928 L2.134,9.361 C1.996,9.601 2.078,9.906 2.317,10.044 C2.396,10.09 2.481,10.111 2.566,10.111 C2.739,10.111 2.907,10.022 3,9.861 L3.25,9.428 L3.683,9.678 C3.762,9.724 3.848,9.745 3.933,9.745 C4.105,9.745 4.273,9.655 4.366,9.495 C4.504,9.256 4.422,8.95 4.183,8.813 L3.75,8.562 L7.25,2.5 C7.388,2.261 7.306,1.955 7.067,1.817 C6.828,1.677 6.522,1.761 6.384,2 L2.884,8.062 L2.451,7.812 C2.212,7.672 1.906,7.756 1.768,7.995 C1.63,8.234 1.712,8.54 1.951,8.678 Z" id="Fill-1" sketch:type="MSShapeGroup"></path>
        </g>
    </g>
</svg>