<?xml version="1.0" encoding="UTF-8" standalone="no"?>
<svg width="16px" height="16px" viewBox="0 0 16 16" version="1.1" xmlns="http://www.w3.org/2000/svg" xmlns:xlink="http://www.w3.org/1999/xlink" xmlns:sketch="http://www.bohemiancoding.com/sketch/ns">
    <!-- Generator: Sketch 3.1.1 (8761) - http://www.bohemiancoding.com/sketch -->
    <title>edit</title>
    <desc>Created with Sketch.</desc>
    <defs></defs>
    <g id="production" stroke="none" stroke-width="1" fill="none" fill-rule="evenodd" sketch:type="MSPage">
        <g id="edit" sketch:type="MSArtboardGroup" fill="#000000">
            <path d="M12.564,2.064 L13.167,1.461 C13.559,1.069 14.188,1.074 14.578,1.464 C14.971,1.858 14.97,2.487 14.582,2.875 L13.978,3.478 L12.564,2.064 L12.564,2.064 Z M5.211,9.418 L4.863,9.766 C4.666,9.962 4.437,10.333 4.35,10.592 L3.957,11.772 C3.87,12.032 4.011,12.172 4.271,12.086 L5.451,11.692 C5.711,11.606 6.084,11.373 6.277,11.18 L6.625,10.832 L5.211,9.418 L5.211,9.418 Z M5.564,9.064 L12.211,2.418 L13.625,3.832 L6.978,10.478 L5.564,9.064 L5.564,9.064 Z" id="Fill-1" sketch:type="MSShapeGroup"></path>
            <path d="M3.992,1 C2.338,1 1,2.345 1,4.006 L1,11.993 C1,13.655 2.344,15 4.007,15 L11.994,15 C13.653,15 15,13.66 15,12.005 L15,8 C15,7.724 14.776,7.5 14.5,7.5 C14.224,7.5 14,7.724 14,8 L14,12.005 C14,13.106 13.102,14 11.994,14 L4.007,14 C2.897,14 2,13.103 2,11.993 L2,4.006 C2,2.896 2.891,2 3.992,2 L8,2 C8.276,2 8.5,1.776 8.5,1.5 C8.5,1.224 8.276,1 8,1 L3.992,1" id="Fill-2" sketch:type="MSShapeGroup"></path>
        </g>
    </g>
</svg>