<?xml version="1.0" encoding="UTF-8" standalone="no"?>
<svg width="16px" height="16px" viewBox="0 0 16 16" version="1.1" xmlns="http://www.w3.org/2000/svg" xmlns:xlink="http://www.w3.org/1999/xlink" xmlns:sketch="http://www.bohemiancoding.com/sketch/ns">
    <!-- Generator: Sketch 3.1.1 (8761) - http://www.bohemiancoding.com/sketch -->
    <title>graph</title>
    <desc>Created with Sketch.</desc>
    <defs></defs>
    <g id="production" stroke="none" stroke-width="1" fill="none" fill-rule="evenodd" sketch:type="MSPage">
        <g id="graph" sketch:type="MSArtboardGroup" fill="#000000">
            <path d="M12.994,1 L3.006,1 C1.898,1 1,1.9 1,2.992 L1,10.008 C1,11.108 1.897,12 3.006,12 L5.293,12 L3.146,14.146 C2.951,14.342 2.951,14.658 3.146,14.854 C3.342,15.049 3.658,15.049 3.854,14.854 L6.707,12 L9.293,12 L12.146,14.854 C12.342,15.049 12.658,15.049 12.854,14.854 C13.049,14.658 13.049,14.342 12.854,14.146 L10.707,12 L12.994,12 C14.102,12 15,11.1 15,10.008 L15,2.992 C15,1.892 14.103,1 12.994,1 L12.994,1 Z M14,10.008 C14,10.549 13.548,11 12.994,11 L3.006,11 C2.448,11 2,10.555 2,10.008 L2,2.992 C2,2.451 2.452,2 3.006,2 L12.994,2 C13.552,2 14,2.445 14,2.992 L14,10.008 L14,10.008 Z" id="Fill-1" sketch:type="MSShapeGroup"></path>
            <path d="M11.5,4 L8.5,4 C8.224,4 8,4.224 8,4.5 C8,4.776 8.224,5 8.5,5 L10.232,5 L7.526,7.319 L6.354,6.146 C6.178,5.97 5.899,5.951 5.7,6.1 L3.7,7.6 C3.479,7.766 3.434,8.079 3.6,8.3 C3.766,8.521 4.079,8.566 4.3,8.4 L5.953,7.16 L7.146,8.353 C7.331,8.538 7.627,8.55 7.825,8.38 L11,5.659 L11,7.5 C11,7.776 11.224,8 11.5,8 C11.776,8 12,7.776 12,7.5 L12,4 L11.5,4" id="Fill-2" sketch:type="MSShapeGroup"></path>
        </g>
    </g>
</svg>