<?xml version="1.0" encoding="UTF-8" standalone="no"?>
<svg width="16px" height="16px" viewBox="0 0 16 16" version="1.1" xmlns="http://www.w3.org/2000/svg" xmlns:xlink="http://www.w3.org/1999/xlink" xmlns:sketch="http://www.bohemiancoding.com/sketch/ns">
    <!-- Generator: Sketch 3.1.1 (8761) - http://www.bohemiancoding.com/sketch -->
    <title>heart</title>
    <desc>Created with Sketch.</desc>
    <defs></defs>
    <g id="production" stroke="none" stroke-width="1" fill="none" fill-rule="evenodd" sketch:type="MSPage">
        <g id="heart" sketch:type="MSArtboardGroup" fill="#000000">
            <path d="M7.296,2.28 C6.49,1.593 5.391,1 4.5,1 C2.291,1 1,3.006 1,5.48 C1,10.52 8,15 8,15 C8,15 15,10.52 15,5.48 C15,3.006 13.709,1 11.5,1 C10.662,1 9.641,1.524 8.852,2.158 C8.852,2.158 8.16,2.796 8,3 C7.921,2.9 7.299,2.276 7.296,2.28 L7.296,2.28 Z M8.038,1.529 C9.052,0.655 10.394,0 11.5,0 C14.243,0 16,2.378 16,5.48 C16,8.01 14.564,10.48 12.207,12.837 C11.407,13.637 10.553,14.368 9.699,15.017 C9.399,15.245 9.121,15.446 8.869,15.62 C8.716,15.726 8.604,15.801 8.539,15.842 C8.211,16.053 7.789,16.053 7.461,15.842 C7.397,15.801 7.284,15.726 7.131,15.62 C6.879,15.446 6.601,15.245 6.301,15.017 C5.447,14.368 4.593,13.637 3.793,12.837 C1.436,10.48 0,8.01 0,5.48 C0,2.378 1.757,0 4.5,0 C5.57,0 6.861,0.613 7.862,1.444 C7.955,1.484 8.038,1.529 8.038,1.529 L8.038,1.529 Z" id="Imported-Layers" sketch:type="MSShapeGroup"></path>
        </g>
    </g>
</svg>