<?xml version="1.0" encoding="UTF-8" standalone="no"?>
<svg width="16px" height="16px" viewBox="0 0 16 16" version="1.1" xmlns="http://www.w3.org/2000/svg" xmlns:xlink="http://www.w3.org/1999/xlink" xmlns:sketch="http://www.bohemiancoding.com/sketch/ns">
    <!-- Generator: Sketch 3.1.1 (8761) - http://www.bohemiancoding.com/sketch -->
    <title>hockey</title>
    <desc>Created with Sketch.</desc>
    <defs></defs>
    <g id="production" stroke="none" stroke-width="1" fill="none" fill-rule="evenodd" sketch:type="MSPage">
        <g id="hockey" sketch:type="MSArtboardGroup" fill="#000000">
            <path d="M8,9.464 C4.122,9.464 0,8.331 0,6.232 C0,4.133 4.122,3 8,3 C11.878,3 16,4.133 16,6.232 C16,8.331 11.878,9.464 8,9.464 L8,9.464 Z M8,4 C3.663,4 1,5.3 1,6.232 C1,7.164 3.663,8.464 8,8.464 C12.337,8.464 15,7.164 15,6.232 C15,5.3 12.337,4 8,4 L8,4 Z" id="Fill-1" sketch:type="MSShapeGroup"></path>
            <path d="M8,13 C3.835,13 0.579,11.658 0.257,9.81 C0.003,8.347 0,6.472 0,6.393 L1,6.393 C1,6.412 1.003,8.261 1.243,9.639 C1.408,10.591 3.67,12 8,12 C12.014,12 14.587,10.806 14.755,9.652 C14.997,7.992 15,6.409 15,6.393 L16,6.393 C16,6.46 15.997,8.065 15.745,9.796 C15.47,11.683 12.285,13 8,13" id="Fill-2" sketch:type="MSShapeGroup"></path>
        </g>
    </g>
</svg>