<?xml version="1.0" encoding="UTF-8" standalone="no"?>
<svg width="16px" height="16px" viewBox="0 0 16 16" version="1.1" xmlns="http://www.w3.org/2000/svg" xmlns:xlink="http://www.w3.org/1999/xlink" xmlns:sketch="http://www.bohemiancoding.com/sketch/ns">
    <!-- Generator: Sketch 3.1.1 (8761) - http://www.bohemiancoding.com/sketch -->
    <title>logout</title>
    <desc>Created with Sketch.</desc>
    <defs></defs>
    <g id="production" stroke="none" stroke-width="1" fill="none" fill-rule="evenodd" sketch:type="MSPage">
        <g id="logout" sketch:type="MSArtboardGroup" fill="#000000">
            <path d="M3.51,15 C2.124,15 1,13.879 1,12.494 L1,2.506 C1,1.119 2.117,0 3.51,0 L9,0 C9.276,0 9.5,0.224 9.5,0.5 C9.5,0.776 9.276,1 9,1 L3.51,1 C2.67,1 2,1.671 2,2.506 L2,12.494 C2,13.326 2.675,14 3.51,14 L9,14 C9.276,14 9.5,14.224 9.5,14.5 C9.5,14.776 9.276,15 9,15 L3.51,15" id="Fill-1" sketch:type="MSShapeGroup"></path>
            <path d="M15,7.5 L15,7.5 C15,7.435 14.987,7.37 14.961,7.309 C14.936,7.248 14.9,7.192 14.854,7.146 L11.854,4.146 C11.658,3.951 11.342,3.951 11.146,4.146 C10.951,4.342 10.951,4.658 11.146,4.854 L13.293,7 L4.5,7 C4.224,7 4,7.224 4,7.5 C4,7.776 4.224,8 4.5,8 L13.293,8 L11.146,10.146 C10.951,10.342 10.951,10.658 11.146,10.854 C11.342,11.049 11.658,11.049 11.854,10.854 L14.854,7.854 C14.9,7.807 14.936,7.752 14.961,7.691 C14.987,7.63 15,7.566 15,7.502 L15,7.5" id="Fill-2" sketch:type="MSShapeGroup"></path>
        </g>
    </g>
</svg>