<?xml version="1.0" encoding="UTF-8" standalone="no"?>
<svg width="16px" height="16px" viewBox="0 0 16 16" version="1.1" xmlns="http://www.w3.org/2000/svg" xmlns:xlink="http://www.w3.org/1999/xlink" xmlns:sketch="http://www.bohemiancoding.com/sketch/ns">
    <!-- Generator: Sketch 3.1.1 (8761) - http://www.bohemiancoding.com/sketch -->
    <title>mine-spill</title>
    <desc>Created with Sketch.</desc>
    <defs></defs>
    <g id="production" stroke="none" stroke-width="1" fill="none" fill-rule="evenodd" sketch:type="MSPage">
        <g id="mine-spill" sketch:type="MSArtboardGroup" fill="#000000">
            <path d="M6.71005697,1.77900035 C7.38005697,1.40700035 8.58305697,1.40700035 9.25205697,1.77900035 L14.741057,4.82700035 C15.044057,4.99500035 15.043057,4.94200035 14.748057,5.12200035 L9.17605697,8.52700035 C8.55005697,8.91000035 7.41805697,8.91000035 6.79105697,8.52700035 L1.21905697,5.12200035 C0.926056966,4.94300035 0.925056966,4.99300035 1.22505697,4.82600035 L6.71005697,1.77900035 L6.71005697,1.77900035 Z M13.860057,9.33700035 L14.741057,9.82700035 C15.044057,9.99500035 15.043057,9.94200035 14.748057,10.1220003 L9.17605697,13.5270003 C8.55005697,13.9100003 7.41805697,13.9100003 6.79105697,13.5270003 L1.21905697,10.1220003 C0.926056966,9.94300035 0.925056966,9.99300035 1.22505697,9.82600035 L2.10805697,9.33600035 L6.27305697,11.8790003 C7.21905697,12.4580003 8.75405697,12.4580003 9.70105697,11.8790003 L13.860057,9.33700035 L13.860057,9.33700035 Z M13.860057,6.83700035 L14.742057,7.32600035 C15.044057,7.49400035 15.043057,7.44200035 14.749057,7.62200035 L9.17905697,11.0260003 C8.55305697,11.4090003 7.42105697,11.4090003 6.79405697,11.0260003 L1.22005697,7.62200035 C0.927056966,7.44300035 0.926056966,7.49300035 1.22605697,7.32600035 L2.10705697,6.83700035 L6.27005697,9.38000035 C7.21705697,9.95900035 8.75105697,9.95900035 9.69805697,9.38000035 L13.860057,6.83700035 L13.860057,6.83700035 Z M1.12705697,6.23700035 L0.740056966,6.45200035 C-0.229943034,6.99100035 -0.248943034,7.89700035 0.698056966,8.47500035 L1.12705697,8.73700035 L0.740056966,8.95200035 C-0.229943034,9.49100035 -0.248943034,10.3970003 0.698056966,10.9750003 L6.27005697,14.3800003 C7.21705697,14.9590003 8.75105697,14.9590003 9.69805697,14.3800003 L15.270057,10.9750003 C16.217057,10.3970003 16.201057,9.49300035 15.227057,8.95200035 L14.840057,8.73800035 L15.270057,8.47500035 C16.217057,7.89700035 16.201057,6.99300035 15.227057,6.45200035 L14.841057,6.23700035 L15.270057,5.97500035 C16.217057,5.39700035 16.201057,4.49300035 15.227057,3.95200035 L9.73805697,0.905000347 C8.76705697,0.366000347 7.19805697,0.364000347 6.22505697,0.905000347 L0.740056966,3.95200035 C-0.229943034,4.49100035 -0.248943034,5.39700035 0.698056966,5.97500035 L1.12705697,6.23700035 L1.12705697,6.23700035 Z" id="Imported-Layers" sketch:type="MSShapeGroup"></path>
        </g>
    </g>
</svg>