<?xml version="1.0" encoding="UTF-8" standalone="no"?>
<svg width="16px" height="16px" viewBox="0 0 16 16" version="1.1" xmlns="http://www.w3.org/2000/svg" xmlns:xlink="http://www.w3.org/1999/xlink" xmlns:sketch="http://www.bohemiancoding.com/sketch/ns">
    <!-- Generator: Sketch 3.1.1 (8761) - http://www.bohemiancoding.com/sketch -->
    <title>open</title>
    <desc>Created with Sketch.</desc>
    <defs></defs>
    <g id="production" stroke="none" stroke-width="1" fill="none" fill-rule="evenodd" sketch:type="MSPage">
        <g id="open" sketch:type="MSArtboardGroup" fill="#000000">
            <path d="M12.008,15 C13.662,15 15,13.655 15,11.993 L15,4.007 C15,2.345 13.656,1 11.993,1 L4.006,1 C2.347,1 1,2.34 1,3.995 L1,8 C1,8.276 1.224,8.5 1.5,8.5 C1.776,8.5 2,8.276 2,8 L2,3.995 C2,2.894 2.898,2 4.006,2 L11.993,2 C13.103,2 14,2.897 14,4.007 L14,11.993 C14,13.104 13.109,14 12.008,14 L8,14 C7.724,14 7.5,14.224 7.5,14.5 C7.5,14.776 7.724,15 8,15 L12.008,15" id="Fill-1" sketch:type="MSShapeGroup"></path>
            <path d="M8.961,7.309 C8.911,7.187 8.813,7.089 8.691,7.039 C8.63,7.013 8.565,7 8.5,7 L5,7 C4.724,7 4.5,7.224 4.5,7.5 C4.5,7.776 4.724,8 5,8 L7.293,8 L1.146,14.146 C0.951,14.342 0.951,14.658 1.146,14.854 C1.342,15.049 1.658,15.049 1.854,14.854 L8,8.707 L8,11 C8,11.276 8.224,11.5 8.5,11.5 C8.776,11.5 9,11.276 9,11 L9,7.5 C9,7.435 8.987,7.37 8.961,7.309" id="Fill-2" sketch:type="MSShapeGroup"></path>
        </g>
    </g>
</svg>