<?xml version="1.0" encoding="UTF-8" standalone="no"?>
<svg width="16px" height="16px" viewBox="0 0 16 16" version="1.1" xmlns="http://www.w3.org/2000/svg" xmlns:xlink="http://www.w3.org/1999/xlink" xmlns:sketch="http://www.bohemiancoding.com/sketch/ns">
    <!-- Generator: Sketch 3.1.1 (8761) - http://www.bohemiancoding.com/sketch -->
    <title>phone</title>
    <desc>Created with Sketch.</desc>
    <defs></defs>
    <g id="production" stroke="none" stroke-width="1" fill="none" fill-rule="evenodd" sketch:type="MSPage">
        <g id="phone" sketch:type="MSArtboardGroup" fill="#000000">
            <path d="M5.41262679,9.19312508 C4.91962679,8.63312508 4.41462679,8.00712508 3.91562679,7.34912508 C3.63562679,6.97912508 3.37462679,6.62212508 3.14062679,6.29212508 C3.00062679,6.09512508 2.90162679,5.95312508 2.85062679,5.87712508 C2.31562679,5.13612508 2.41362679,3.98612508 3.04762679,3.35212508 L3.75462679,2.64512508 C3.94862679,2.45112508 4.26762679,2.45112508 4.46362679,2.64712508 L5.16862679,3.35212508 C5.33962679,3.52212508 5.44762679,3.73112508 5.50362679,3.96012508 C5.53762679,4.09512508 5.54562679,4.19512508 5.54462679,4.22012508 L5.54862679,4.36812508 C5.54462679,4.33012508 5.50962679,4.42512508 5.52262679,4.41212508 L5.16862679,4.76612508 L5.09262679,4.85212508 C4.81162679,5.20512508 4.70562679,5.76312508 4.90162679,6.44312508 C5.13362679,7.25112508 5.77962679,8.20612508 6.93662679,9.36212508 C8.09262679,10.5191251 9.04762679,11.1651251 9.85562679,11.3971251 C10.5356268,11.5931251 11.0936268,11.4871251 11.4466268,11.2061251 L11.5326268,11.1301251 L11.8866268,10.7761251 C11.8386268,10.8241251 11.8696268,10.8151251 11.7936268,10.7981251 C11.9556268,10.8301251 12.1816268,10.8811251 12.4216268,10.9501251 C12.5216268,10.9791251 12.6146268,11.0091251 12.6976268,11.0381251 C12.8596268,11.0961251 12.9676268,11.1511251 12.9466268,11.1301251 L13.6526268,11.8351251 C13.8496268,12.0321251 13.8496268,12.3491251 13.6536268,12.5441251 L12.9466268,13.2511251 C12.3116268,13.8871251 11.1656268,13.9831251 10.4426268,13.4671251 C10.3456268,13.4011251 10.2066268,13.3051251 10.0126268,13.1691251 C9.68762679,12.9391251 9.33562679,12.6821251 8.96762679,12.4041251 C8.24962679,11.8591251 7.56562679,11.3031251 6.95862679,10.7581251 C6.69662679,10.5231251 6.45262679,10.2921251 6.22962679,10.0691251 C5.96862679,9.80812508 5.69462679,9.51412508 5.41262679,9.19312508 L5.41262679,9.19312508 Z M9.86162679,14.2811251 C10.9796268,15.0791251 12.6706268,14.9411251 13.6536268,13.9581251 L14.3606268,13.2511251 C14.9466268,12.6661251 14.9476268,11.7161251 14.3596268,11.1281251 L13.6536268,10.4231251 C13.3006268,10.0691251 12.0106268,9.82212508 12.0106268,9.82212508 C11.7466268,9.76312508 11.3686268,9.88012508 11.1786268,10.0691251 L10.8256268,10.4231251 C10.8256268,10.4231251 10.0366268,11.0481251 7.64362679,8.65512508 C5.25062679,6.26212508 5.87562679,5.47312508 5.87562679,5.47312508 L6.22962679,5.11912508 C6.42462679,4.92412508 6.57162679,4.53412508 6.54362679,4.26312508 C6.54362679,4.26312508 6.58262679,3.35212508 5.87562679,2.64512508 L5.17062679,1.94012508 C4.58362679,1.35312508 3.63162679,1.35412508 3.04762679,1.93812508 L2.34062679,2.64512508 C1.36362679,3.62112508 1.21262679,5.31912508 2.02262679,6.43812508 C2.02262679,6.43812508 3.77962679,9.03312508 5.52262679,10.7761251 C7.31462679,12.5691251 9.86162679,14.2811251 9.86162679,14.2811251 L9.86162679,14.2811251 Z" id="Imported-Layers" sketch:type="MSShapeGroup"></path>
        </g>
    </g>
</svg>