<?xml version="1.0" encoding="UTF-8" standalone="no"?>
<svg width="16px" height="16px" viewBox="0 0 16 16" version="1.1" xmlns="http://www.w3.org/2000/svg" xmlns:xlink="http://www.w3.org/1999/xlink" xmlns:sketch="http://www.bohemiancoding.com/sketch/ns">
    <!-- Generator: Sketch 3.1.1 (8761) - http://www.bohemiancoding.com/sketch -->
    <title>radio</title>
    <desc>Created with Sketch.</desc>
    <defs></defs>
    <g id="production" stroke="none" stroke-width="1" fill="none" fill-rule="evenodd" sketch:type="MSPage">
        <g id="radio" sketch:type="MSArtboardGroup" fill="#000000">
            <path d="M8,11 C9.657,11 11,9.657 11,8 C11,6.343 9.657,5 8,5 C6.343,5 5,6.343 5,8 C5,9.657 6.343,11 8,11" id="Imported-Layers" sketch:type="MSShapeGroup"></path>
        </g>
    </g>
</svg>