<?xml version="1.0" encoding="UTF-8" standalone="no"?>
<svg width="16px" height="16px" viewBox="0 0 16 16" version="1.1" xmlns="http://www.w3.org/2000/svg" xmlns:xlink="http://www.w3.org/1999/xlink" xmlns:sketch="http://www.bohemiancoding.com/sketch/ns">
    <!-- Generator: Sketch 3.1.1 (8761) - http://www.bohemiancoding.com/sketch -->
    <title>rugby</title>
    <desc>Created with Sketch.</desc>
    <defs></defs>
    <g id="production" stroke="none" stroke-width="1" fill="none" fill-rule="evenodd" sketch:type="MSPage">
        <g id="rugby" sketch:type="MSArtboardGroup" fill="#000000">
            <path d="M16,8 L16,8 C16,4.914 12.276,2 8,2 C3.724,2 0,4.914 0,8 C0,11.085 3.703,14 8,14 C12.297,14 16,11.085 16,8 L16,8 Z M1,8 L1,8 C1,6.402 4.271,5 8,5 C11.729,5 15,6.402 15,8 C15,9.449 12.187,11 8,11 C3.813,11 1,9.449 1,8 L1,8 Z M13.494,5.066 C12.039,4.392 10.087,4 8,4 C5.913,4 3.961,4.392 2.506,5.066 C3.834,3.847 5.88,3 8,3 C10.12,3 12.166,3.847 13.494,5.066 L13.494,5.066 Z M2.513,10.941 C3.964,11.61 5.91,12 8,12 C10.09,12 12.036,11.61 13.487,10.941 C12.159,12.156 10.116,13 8,13 C5.884,13 3.841,12.156 2.513,10.941 L2.513,10.941 Z" id="Imported-Layers" sketch:type="MSShapeGroup"></path>
        </g>
    </g>
</svg>