<?xml version="1.0" encoding="UTF-8" standalone="no"?>
<svg width="16px" height="16px" viewBox="0 0 16 16" version="1.1" xmlns="http://www.w3.org/2000/svg" xmlns:xlink="http://www.w3.org/1999/xlink" xmlns:sketch="http://www.bohemiancoding.com/sketch/ns">
    <!-- Generator: Sketch 3.1.1 (8761) - http://www.bohemiancoding.com/sketch -->
    <title>running</title>
    <desc>Created with Sketch.</desc>
    <defs></defs>
    <g id="production" stroke="none" stroke-width="1" fill="none" fill-rule="evenodd" sketch:type="MSPage">
        <g id="running" sketch:type="MSArtboardGroup" fill="#000000">
            <path d="M15.4502462,15.232 C15.7852462,14.873 16.0002462,14.424 16.0002462,13.943 C16.0002462,13.203 15.4012462,12.894 15.0052462,12.688 C14.9082462,12.639 14.8092462,12.588 14.7692462,12.571 C14.6052462,12.392 14.0622462,11.238 13.7022462,10.476 C13.1122462,9.223 12.5522462,7.517 12.3832462,6.882 C12.2212462,6.271 11.8202462,4.802 11.5922462,4.369 C11.5052462,4.206 11.2602462,4.053 11.0752462,4.053 C10.9542462,4.053 10.7032462,4.053 10.2912462,4.583 C9.95724615,4.255 9.47924615,3.64 9.23624615,2.644 C9.16724615,2.364 9.10024615,2.05 9.03524615,1.748 C8.74624615,0.405 8.65924615,0 8.14724615,0 C5.86124615,0.011 3.88124615,1.563 3.42024615,1.939 C3.41824615,1.94 3.41424615,2 3.41224615,2 C3.41224615,2 3.41224615,2 3.41124615,2 L3.40924615,2 C3.13824615,2 2.49824615,2.175 2.08624615,2.37 C1.39124615,2.698 1.69324615,3.472 1.93524615,4.118 L1.98124615,4.227 C2.24824615,4.942 2.63524615,5.481 3.04424615,6.058 C3.25224615,6.351 3.46724615,6.65 3.67324615,6.99 C3.90324615,7.37 4.55624615,7.576 5.17724615,7.689 C5.18324615,7.76 5.19124615,7.829 5.19824615,7.9 C3.83324615,8.103 1.40224615,12.577 0.0532461519,15.277 C-0.0247538481,15.432 -0.0167538481,15.616 0.0752461519,15.763 C0.166246152,15.91 0.327246152,16 0.500246152,16 L12.5602462,16 C12.6602462,16 12.7492462,15.964 12.8282462,15.913 C13.1182462,15.96 13.4082462,16 13.7002462,16 C14.3462462,16 14.9452462,15.729 15.3722462,15.315 C15.4022462,15.291 15.4262462,15.263 15.4502462,15.232 L15.4502462,15.232 Z M8.05724615,1.958 C8.12424615,2.269 8.19324615,2.594 8.26424615,2.883 C8.75924615,4.903 10.0892462,5.709 10.1462462,5.742 C10.3822462,5.881 10.6862462,5.805 10.8282462,5.57 C10.8572462,5.522 10.8902462,5.471 10.9232462,5.421 C11.0072462,5.682 11.1112462,6.031 11.2282462,6.447 C10.6072462,6.876 10.0032462,6.894 10.0002462,6.894 C9.72424615,6.894 9.50024615,7.118 9.50024615,7.394 C9.50024615,7.671 9.72424615,7.894 10.0002462,7.894 C10.0342462,7.894 10.7272462,7.885 11.5052462,7.452 C11.5592462,7.633 11.6262462,7.845 11.7002462,8.071 C11.0892462,8.481 10.5032462,8.5 10.5002462,8.5 C10.2242462,8.5 10.0002462,8.724 10.0002462,9 C10.0002462,9.276 10.2242462,9.5 10.5002462,9.5 C10.5342462,9.5 11.2462462,9.493 12.0372462,9.042 C12.1162462,9.258 12.1992462,9.477 12.2852462,9.697 C11.7592462,9.979 11.3022462,9.994 11.3002462,9.994 C11.0232462,9.994 10.8002462,10.218 10.8002462,10.494 C10.8002462,10.771 11.0232462,10.994 11.3002462,10.994 C11.3322462,10.994 11.9502462,10.983 12.6712462,10.621 C12.7142462,10.715 12.7552462,10.811 12.7982462,10.901 C13.7112462,12.84 13.9192462,13.21 14.1842462,13.376 C14.2992462,13.449 14.4232462,13.514 14.5462462,13.577 C14.9152462,13.768 15.0002462,13.837 15.0002462,13.943 C15.0002462,14.109 14.9362462,14.271 14.8352462,14.417 C14.4192462,14.396 14.0562462,14.352 13.8062462,14.273 C12.0162462,13.71 8.82824615,9.687 7.64324615,8.04 L7.50224615,6.347 C7.48724615,6.164 7.37424615,6.004 7.20624615,5.93 L5.72924615,5.279 C5.16124615,4.417 4.42624615,3.22 4.13324615,2.593 C4.59324615,2.232 6.11024615,1.142 7.84024615,1.013 C7.90724615,1.26 7.99024615,1.649 8.05724615,1.958 L8.05724615,1.958 Z M4.52824615,6.468 C4.30924615,6.106 4.08124615,5.784 3.86024615,5.473 C3.47424615,4.928 3.14024615,4.456 2.91924615,3.863 L2.87124615,3.737 C2.80424615,3.557 2.70924615,3.307 2.67224615,3.148 C2.83524615,3.085 3.02924615,3.024 3.21224615,2.971 C3.65724615,3.947 4.72824615,5.582 4.97724615,5.954 C5.03024615,6.034 5.10424615,6.097 5.19124615,6.136 L6.53124615,6.726 L6.65824615,8.26 C6.66624615,8.35 6.69724615,8.435 6.74924615,8.509 C6.90624615,8.729 10.3032462,13.478 12.8162462,14.907 C12.3442462,14.813 11.8742462,14.624 11.4042462,14.38 C10.6682462,13.932 9.68724615,13.197 8.63824615,12.055 C7.86524615,11.155 7.09924615,10.071 6.34324615,8.759 C6.27424615,8.595 6.18524615,7.831 6.14524615,7.221 C6.12824615,6.982 5.94624615,6.788 5.70924615,6.758 C5.19724615,6.692 4.62024615,6.536 4.52824615,6.468 L4.52824615,6.468 Z M1.31524615,15 C2.76524615,12.199 4.52224615,9.348 5.19724615,8.926 C6.16724615,10.688 7.19624615,12.015 8.16624615,13.025 C8.91624615,13.851 9.67724615,14.52 10.4502462,15 L1.31524615,15 L1.31524615,15 Z" id="Imported-Layers" sketch:type="MSShapeGroup"></path>
        </g>
    </g>
</svg>