<?xml version="1.0" encoding="UTF-8" standalone="no"?>
<svg width="16px" height="16px" viewBox="0 0 16 16" version="1.1" xmlns="http://www.w3.org/2000/svg" xmlns:xlink="http://www.w3.org/1999/xlink" xmlns:sketch="http://www.bohemiancoding.com/sketch/ns">
    <!-- Generator: Sketch 3.1.1 (8761) - http://www.bohemiancoding.com/sketch -->
    <title>service</title>
    <desc>Created with Sketch.</desc>
    <defs></defs>
    <g id="production" stroke="none" stroke-width="1" fill="none" fill-rule="evenodd" sketch:type="MSPage">
        <g id="service" sketch:type="MSArtboardGroup" fill="#000000">
            <path d="M14.7215067,9.96098844 C14.5089546,10.6909743 14.178021,11.3812085 13.740069,12.0074291 C13.5818094,12.233722 13.2700679,12.2888739 13.043775,12.1306143 C12.817482,11.9723546 12.7623301,11.6606131 12.9205898,11.4343202 C13.6195188,10.4349329 14,9.24663546 14,8 C14,4.6862915 11.3137085,2 8,2 C4.6862915,2 2,4.6862915 2,8 C2,10.8491777 3.98592848,13.2345169 6.64906895,13.8473012 L6.64906895,13.8473012 C6.89179619,13.3458379 7.40551071,13 8,13 C8.82842712,13 9.5,13.6715729 9.5,14.5 C9.5,15.3284271 8.82842712,16 8,16 C7.29123715,16 6.6972869,15.5084288 6.54048598,14.8476232 C4.0153233,14.3120429 1.99314306,12.4150219 1.2784003,9.96101521 L1.2784003,9.96101521 C1.19002476,9.98643283 1.09661236,10 1,10 C0.443864822,10 0,9.54809015 0,8.9906311 L0,7.0093689 C0,6.44335318 0.44771525,6 1,6 C1.0967584,6 1.19011835,6.01367944 1.27833348,6.03921421 C2.12624983,3.12759449 4.81466176,1 8,1 C11.1853382,1 13.8737502,3.12759449 14.7216665,6.03921421 C14.8098817,6.01367944 14.9032416,6 15,6 C15.5522847,6 16,6.44335318 16,7.0093689 L16,8.9906311 C16,9.54809015 15.5561352,10 15,10 C14.9033537,10 14.8099097,9.98642331 14.7215067,9.96098844 Z" id="Oval-37" sketch:type="MSShapeGroup"></path>
            <circle id="Oval-41" sketch:type="MSShapeGroup" cx="5.25" cy="6.25" r="1.25"></circle>
            <circle id="Oval-42" sketch:type="MSShapeGroup" cx="10.75" cy="6.25" r="1.25"></circle>
            <path d="M6.05013944,11.230762 C6.63973371,11.3992175 7.29482009,11.5 8,11.5 C8.70517991,11.5 9.36026629,11.3992175 9.94986056,11.230762 C10.3093866,11.1280403 10.5722211,11.0229065 10.7236068,10.9472136 C10.970596,10.823719 11.0707082,10.5233825 10.9472136,10.2763932 C10.823719,10.029404 10.5233825,9.92929178 10.2763932,10.0527864 C10.1777789,10.1020935 9.97186341,10.1844597 9.67513944,10.269238 C9.17098371,10.4132825 8.60732009,10.5 8,10.5 C7.39267991,10.5 6.82901629,10.4132825 6.32486056,10.269238 C6.02813659,10.1844597 5.82222106,10.1020935 5.7236068,10.0527864 C5.47661755,9.92929178 5.17628103,10.029404 5.0527864,10.2763932 C4.92929178,10.5233825 5.02940395,10.823719 5.2763932,10.9472136 C5.42777894,11.0229065 5.69061341,11.1280403 6.05013944,11.230762 Z" id="Line-3" sketch:type="MSShapeGroup"></path>
        </g>
    </g>
</svg>