<?xml version="1.0" encoding="UTF-8" standalone="no"?>
<svg width="16px" height="16px" viewBox="0 0 16 16" version="1.1" xmlns="http://www.w3.org/2000/svg" xmlns:xlink="http://www.w3.org/1999/xlink" xmlns:sketch="http://www.bohemiancoding.com/sketch/ns">
    <!-- Generator: Sketch 3.1.1 (8761) - http://www.bohemiancoding.com/sketch -->
    <title>share</title>
    <desc>Created with Sketch.</desc>
    <defs></defs>
    <g id="production" stroke="none" stroke-width="1" fill="none" fill-rule="evenodd" sketch:type="MSPage">
        <g id="share" sketch:type="MSArtboardGroup" fill="#000000">
            <path d="M11.85425,3.14525 L8.85425,0.14525 C8.80725,0.09925 8.75225,0.06325 8.69125,0.03825 C8.56925,-0.01275 8.43125,-0.01275 8.30925,0.03825 C8.24925,0.06225 8.19625,0.09825 8.15025,0.14325 C8.14925,0.14425 8.14825,0.14425 8.14625,0.14525 L5.14625,3.14525 C4.95125,3.34125 4.95125,3.65725 5.14625,3.85225 C5.34225,4.04825 5.65825,4.04825 5.85425,3.85225 L8.00025,1.70625 L8.00025,10.49925 C8.00025,10.77525 8.22425,10.99925 8.50025,10.99925 C8.77625,10.99925 9.00025,10.77525 9.00025,10.49925 L9.00025,1.70625 L11.14625,3.85225 C11.34225,4.04825 11.65825,4.04825 11.85425,3.85225 C12.04925,3.65725 12.04925,3.34125 11.85425,3.14525" id="Imported-Layers-2" sketch:type="MSShapeGroup"></path>
            <path d="M3.49997165,6 C2.11990946,6 1,7.11908175 1,8.4973917 L1,13.5026083 C1,14.8826575 2.12169507,16 3.50585866,16 L13.4941413,16 C14.877125,16 16,14.881248 16,13.5026083 L16,8.4973917 C16,7.11602259 14.8849915,6 13.5000283,6 L11,6 L11,7 L13.5000283,7 C14.3325032,7 15,7.66810393 15,8.4973917 L15,13.5026083 C15,14.3281381 14.3256621,15 13.4941413,15 L3.50585866,15 C2.67311136,15 2,14.3295006 2,13.5026083 L2,8.4973917 C2,7.67153208 2.67202877,7 3.49997165,7 L6,7 L6,6 L3.49997165,6 Z" id="Rectangle-25" sketch:type="MSShapeGroup"></path>
        </g>
    </g>
</svg>