<?xml version="1.0" encoding="UTF-8" standalone="no"?>
<svg width="16px" height="16px" viewBox="0 0 16 16" version="1.1" xmlns="http://www.w3.org/2000/svg" xmlns:xlink="http://www.w3.org/1999/xlink" xmlns:sketch="http://www.bohemiancoding.com/sketch/ns">
    <!-- Generator: Sketch 3.1.1 (8761) - http://www.bohemiancoding.com/sketch -->
    <title>smiley-sad</title>
    <desc>Created with Sketch.</desc>
    <defs></defs>
    <g id="production" stroke="none" stroke-width="1" fill="none" fill-rule="evenodd" sketch:type="MSPage">
        <g id="smiley-sad" sketch:type="MSArtboardGroup" fill="#F6C623">
            <path d="M0,1.99406028 L0,14.0059397 C0,15.1072288 0.894513756,16 1.99406028,16 L14.0059397,16 C15.1072288,16 16,15.1054862 16,14.0059397 L16,1.99406028 C16,0.892771196 15.1054862,0 14.0059397,0 L1.99406028,0 C0.892771196,0 0,0.894513756 0,1.99406028 Z M14.0059397,1 C14.5539384,1 15,1.44579254 15,1.99406028 L15,14.0059397 C15,14.5539384 14.5542075,15 14.0059397,15 L1.99406028,15 C1.44606163,15 1,14.5542075 1,14.0059397 L1,1.99406028 C1,1.44606163 1.44579254,1 1.99406028,1 L14.0059397,1 Z M4.75,6.5 C5.44035594,6.5 6,5.94035594 6,5.25 C6,4.55964406 5.44035594,4 4.75,4 C4.05964406,4 3.5,4.55964406 3.5,5.25 C3.5,5.94035594 4.05964406,6.5 4.75,6.5 Z M11.25,6.5 C11.9403559,6.5 12.5,5.94035594 12.5,5.25 C12.5,4.55964406 11.9403559,4 11.25,4 C10.5596441,4 10,4.55964406 10,5.25 C10,5.94035594 10.5596441,6.5 11.25,6.5 Z M5.5263932,10.5527864 C6.21892558,10.2065202 7.04500645,10 8,10 C8.95499355,10 9.78107442,10.2065202 10.4736068,10.5527864 C10.8998406,10.7659033 11.1925185,10.9854118 11.3535534,11.1464466 C11.5488155,11.3417088 11.5488155,11.6582912 11.3535534,11.8535534 C11.1582912,12.0488155 10.8417088,12.0488155 10.6464466,11.8535534 C10.5574815,11.7645882 10.3501594,11.6090967 10.0263932,11.4472136 C9.46892558,11.1684798 8.79500645,11 8,11 C7.20499355,11 6.53107442,11.1684798 5.9736068,11.4472136 C5.6498406,11.6090967 5.44251854,11.7645882 5.35355339,11.8535534 C5.15829124,12.0488155 4.84170876,12.0488155 4.64644661,11.8535534 C4.45118446,11.6582912 4.45118446,11.3417088 4.64644661,11.1464466 C4.80748146,10.9854118 5.1001594,10.7659033 5.5263932,10.5527864 Z" id="Rectangle-21" sketch:type="MSShapeGroup"></path>
        </g>
    </g>
</svg>