<?xml version="1.0" encoding="UTF-8" standalone="no"?>
<svg width="16px" height="16px" viewBox="0 0 16 16" version="1.1" xmlns="http://www.w3.org/2000/svg" xmlns:xlink="http://www.w3.org/1999/xlink" xmlns:sketch="http://www.bohemiancoding.com/sketch/ns">
    <!-- Generator: Sketch 3.1.1 (8761) - http://www.bohemiancoding.com/sketch -->
    <title>speaker-on</title>
    <desc>Created with Sketch.</desc>
    <defs></defs>
    <g id="production" stroke="none" stroke-width="1" fill="none" fill-rule="evenodd" sketch:type="MSPage">
        <g id="speaker-on" sketch:type="MSArtboardGroup" fill="#000000">
            <path d="M12.504,13.686 C12.331,13.686 12.164,13.598 12.071,13.438 C11.932,13.199 12.013,12.893 12.252,12.754 C13.945,11.77 14.997,9.948 14.997,8 C14.997,6.052 13.945,4.23 12.252,3.246 C12.013,3.107 11.932,2.801 12.071,2.562 C12.21,2.323 12.516,2.242 12.755,2.381 C14.754,3.544 15.997,5.696 15.997,8 C15.997,10.304 14.754,12.456 12.755,13.619 C12.676,13.665 12.589,13.686 12.504,13.686" id="Fill-1" sketch:type="MSShapeGroup"></path>
            <path d="M12.503,11.112 C12.387,11.112 12.27,11.072 12.175,10.989 C11.967,10.809 11.945,10.492 12.126,10.284 C12.696,9.63 12.997,8.84 12.997,8 C12.997,7.16 12.696,6.37 12.126,5.716 C11.945,5.508 11.967,5.191 12.175,5.011 C12.383,4.828 12.699,4.852 12.881,5.06 C13.6,5.887 13.997,6.931 13.997,8 C13.997,9.069 13.6,10.113 12.881,10.94 C12.782,11.054 12.643,11.112 12.503,11.112" id="Fill-2" sketch:type="MSShapeGroup"></path>
            <path d="M1.0093689,5 C0.451909848,5 0,5.45097518 0,5.99077797 L0,10.009222 C0,10.5564136 0.443353176,11 1.0093689,11 L4,11 L10.1833113,15.4166509 C10.634356,15.7388257 11,15.5553691 11,14.9991283 L11,1.00087166 C11,0.448105505 10.6432453,0.254824758 10.1833113,0.583349094 L4,5 L1.0093689,5 Z M4.32046505,6 L4.58123819,5.81373347 L10.7645495,1.39708257 C10.7111297,1.43523954 10.5355801,1.47002189 10.3024136,1.34865358 C10.071851,1.22864063 10,1.06821876 10,1.00087166 L10,14.9991283 C10,14.928615 10.0752772,14.7639749 10.3076747,14.6458473 C10.5369766,14.5292933 10.7094596,14.5635676 10.7645495,14.6029174 L4.58123819,10.1862665 L4.32046505,10 L4,10 L1.0093689,10 C0.995766482,10 1,5.99077797 1,5.99077797 C1,6.00374161 4,6 4,6 L4.32046505,6 Z" id="Rectangle-26" sketch:type="MSShapeGroup"></path>
        </g>
    </g>
</svg>