<?xml version="1.0" encoding="UTF-8" standalone="no"?>
<svg width="16px" height="16px" viewBox="0 0 16 16" version="1.1" xmlns="http://www.w3.org/2000/svg" xmlns:xlink="http://www.w3.org/1999/xlink" xmlns:sketch="http://www.bohemiancoding.com/sketch/ns">
    <!-- Generator: Sketch 3.1.1 (8761) - http://www.bohemiancoding.com/sketch -->
    <title>stop</title>
    <desc>Created with Sketch.</desc>
    <defs></defs>
    <g id="production" stroke="none" stroke-width="1" fill="none" fill-rule="evenodd" sketch:type="MSPage">
        <g id="stop" sketch:type="MSArtboardGroup" fill="#000000">
            <path d="M13,10.5 C13,12.9852814 10.9852814,15 8.5,15 C6.01471863,15 4,12.9852814 4,10.5 L3.5,10.5 L3,10.5 C3,13.5375661 5.46243388,16 8.5,16 C11.5375661,16 14,13.5375661 14,10.5 L13.5,10.5 L13,10.5 Z" id="Oval-35" sketch:type="MSShapeGroup"></path>
            <path d="M12,3 C12,2.80430637 11.9569149,2.54579583 11.8222136,2.2763932 C11.5840689,1.80010387 11.1339131,1.5 10.5,1.5 C9.86608687,1.5 9.41593107,1.80010387 9.1777864,2.2763932 C9.04308509,2.54579583 9,2.80430637 9,3 L9,6.5 C9,6.77614237 9.22385763,7 9.5,7 C9.77614237,7 10,6.77614237 10,6.5 L10,3 C10,2.94569363 10.0194149,2.82920417 10.0722136,2.7236068 C10.1465689,2.57489613 10.2589131,2.5 10.5,2.5 C10.7410869,2.5 10.8534311,2.57489613 10.9277864,2.7236068 C10.9805851,2.82920417 11,2.94569363 11,3 L11,9 C11,9.27614237 11.2238576,9.5 11.5,9.5 C11.7761424,9.5 12,9.27614237 12,9 L12,3 Z" id="Path-244" sketch:type="MSShapeGroup"></path>
            <path d="M10,1.5 C10,1.30430637 9.95691491,1.04579583 9.8222136,0.776393202 C9.58406893,0.300103868 9.13391313,-2.81513979e-16 8.5,0 C7.86608687,2.81513979e-16 7.41593107,0.300103868 7.1777864,0.776393202 C7.04308509,1.04579583 7,1.30430637 7,1.5 L7,6.5 C7,6.77614237 7.22385763,7 7.5,7 C7.77614237,7 8,6.77614237 8,6.5 L8,1.5 C8,1.44569363 8.01941491,1.32920417 8.0722136,1.2236068 C8.14656893,1.07489613 8.25891313,1 8.5,1 C8.74108687,1 8.85343107,1.07489613 8.9277864,1.2236068 C8.98058509,1.32920417 9,1.44569363 9,1.5 L9,6.5 C9,6.77614237 9.22385763,7 9.5,7 C9.77614237,7 10,6.77614237 10,6.5 L10,1.5 Z" id="Path-245" sketch:type="MSShapeGroup"></path>
            <path d="M8,2.5 C8,2.30430637 7.95691491,2.04579583 7.8222136,1.7763932 C7.58406893,1.30010387 7.13391313,1 6.5,1 C5.86608687,1 5.41593107,1.30010387 5.1777864,1.7763932 C5.04308509,2.04579583 5,2.30430637 5,2.5 L5,7.5 C5,7.77614237 5.22385763,8 5.5,8 C5.77614237,8 6,7.77614237 6,7.5 L6,2.5 C6,2.44569363 6.01941491,2.32920417 6.0722136,2.2236068 C6.14656893,2.07489613 6.25891313,2 6.5,2 C6.74108687,2 6.85343107,2.07489613 6.9277864,2.2236068 C6.98058509,2.32920417 7,2.44569363 7,2.5 L7,6.5 C7,6.77614237 7.22385763,7 7.5,7 C7.77614237,7 8,6.77614237 8,6.5 L8,2.5 Z" id="Path-246" sketch:type="MSShapeGroup"></path>
            <path d="M6,3.5 C6,3.30430637 5.95691491,3.04579583 5.8222136,2.7763932 C5.58406893,2.30010387 5.13391313,2 4.5,2 C3.86608687,2 3.41593107,2.30010387 3.1777864,2.7763932 C3.04308509,3.04579583 3,3.30430637 3,3.5 L3,10.5 C3,10.7761424 3.22385763,11 3.5,11 C3.77614237,11 4,10.7761424 4,10.5 L4,3.5 C4,3.44569363 4.01941491,3.32920417 4.0722136,3.2236068 C4.14656893,3.07489613 4.25891313,3 4.5,3 C4.74108687,3 4.85343107,3.07489613 4.9277864,3.2236068 C4.98058509,3.32920417 5,3.44569363 5,3.5 L5,7.5 C5,7.77614237 5.22385763,8 5.5,8 C5.77614237,8 6,7.77614237 6,7.5 L6,3.5 Z" id="Path-247" sketch:type="MSShapeGroup"></path>
            <path d="M12,7.5 C12,7.44569363 12.0194149,7.32920417 12.0722136,7.2236068 C12.1465689,7.07489613 12.2589131,7 12.5,7 C12.7410869,7 12.8534311,7.07489613 12.9277864,7.2236068 C12.9805851,7.32920417 13,7.44569363 13,7.5 L13,10.5 C13,10.7761424 13.2238576,11 13.5,11 C13.7761424,11 14,10.7761424 14,10.5 L14,7.5 C14,7.30430637 13.9569149,7.04579583 13.8222136,6.7763932 C13.5840689,6.30010387 13.1339131,6 12.5,6 C11.8660869,6 11.4159311,6.30010387 11.1777864,6.7763932 C11.0430851,7.04579583 11,7.30430637 11,7.5 L11,9 C11,9.27614237 11.2238576,9.5 11.5,9.5 C11.7761424,9.5 12,9.27614237 12,9 L12,7.5 Z" id="Path-248" sketch:type="MSShapeGroup"></path>
        </g>
    </g>
</svg>