<?xml version="1.0" encoding="UTF-8" standalone="no"?>
<svg width="16px" height="16px" viewBox="0 0 16 16" version="1.1" xmlns="http://www.w3.org/2000/svg" xmlns:xlink="http://www.w3.org/1999/xlink" xmlns:sketch="http://www.bohemiancoding.com/sketch/ns">
    <!-- Generator: Sketch 3.1.1 (8761) - http://www.bohemiancoding.com/sketch -->
    <title>table</title>
    <desc>Created with Sketch.</desc>
    <defs></defs>
    <g id="production" stroke="none" stroke-width="1" fill="none" fill-rule="evenodd" sketch:type="MSPage">
        <g id="table" sketch:type="MSArtboardGroup" fill="#000000">
            <path d="M2.379,0.202 C2.468,0.113 2.565,0.045 2.7,0.045 C2.792,0.045 2.867,0.076 2.921,0.131 C2.999,0.211 3.008,0.317 3.008,0.437 L3.008,3.776 C3.008,3.917 2.999,3.969 2.965,4.037 C2.924,4.115 2.841,4.176 2.715,4.176 C2.589,4.176 2.506,4.115 2.465,4.037 C2.431,3.969 2.422,3.917 2.422,3.776 L2.422,0.934 L2.018,1.338 C1.92,1.436 1.877,1.467 1.814,1.484 C1.727,1.508 1.633,1.481 1.559,1.407 C1.484,1.332 1.461,1.243 1.484,1.157 C1.501,1.095 1.533,1.049 1.631,0.951 L2.379,0.202" id="Fill-1" sketch:type="MSShapeGroup"></path>
            <path d="M3.401,9.473 C3.527,9.473 3.582,9.477 3.639,9.513 C3.714,9.553 3.76,9.636 3.76,9.736 C3.76,9.837 3.714,9.92 3.639,9.96 C3.582,9.991 3.527,10 3.401,10 L1.749,10 C1.605,10 1.496,9.997 1.413,9.914 C1.367,9.865 1.336,9.793 1.336,9.71 C1.336,9.587 1.391,9.513 1.499,9.375 L2.864,7.665 C3.043,7.441 3.143,7.252 3.143,6.982 C3.143,6.649 2.934,6.408 2.552,6.408 C2.262,6.408 2.056,6.532 1.941,6.876 C1.909,6.968 1.878,7.028 1.826,7.077 C1.792,7.111 1.728,7.137 1.648,7.137 C1.557,7.137 1.487,7.108 1.439,7.045 C1.391,6.985 1.37,6.916 1.37,6.836 C1.37,6.644 1.482,6.362 1.697,6.17 C1.909,5.984 2.173,5.881 2.54,5.881 C3.258,5.881 3.73,6.276 3.73,6.971 C3.73,7.39 3.576,7.631 3.318,7.952 L2.105,9.473 L3.401,9.473" id="Fill-2" sketch:type="MSShapeGroup"></path>
            <path d="M3.73,13.002 C3.73,13.453 3.524,13.733 3.203,13.889 C3.55,14.029 3.776,14.342 3.776,14.844 C3.776,15.63 3.203,16.034 2.523,16.034 C2.112,16.034 1.769,15.899 1.548,15.65 C1.43,15.516 1.324,15.315 1.324,15.119 C1.324,15.021 1.361,14.947 1.416,14.893 C1.473,14.835 1.554,14.804 1.634,14.804 C1.705,14.804 1.769,14.832 1.809,14.884 C1.86,14.947 1.875,15.061 1.946,15.202 C2.047,15.406 2.233,15.507 2.526,15.507 C2.904,15.507 3.191,15.266 3.191,14.832 C3.191,14.416 2.959,14.173 2.531,14.164 C2.457,14.161 2.396,14.152 2.348,14.124 C2.27,14.081 2.23,14.006 2.23,13.909 C2.23,13.811 2.27,13.736 2.348,13.693 C2.396,13.665 2.457,13.653 2.531,13.653 C2.922,13.644 3.143,13.415 3.143,13.028 C3.143,12.632 2.885,12.408 2.531,12.408 C2.222,12.408 2.053,12.529 1.955,12.821 C1.918,12.934 1.889,12.977 1.837,13.023 C1.794,13.057 1.745,13.077 1.68,13.077 C1.6,13.077 1.527,13.048 1.47,12.996 C1.416,12.947 1.378,12.87 1.378,12.773 C1.378,12.589 1.479,12.402 1.594,12.273 C1.826,12.007 2.127,11.881 2.531,11.881 C3.212,11.881 3.73,12.294 3.73,13.002" id="Fill-3" sketch:type="MSShapeGroup"></path>
            <path d="M5,2.50593627 C5,3.00593627 5.00593972,2.99999702 5.5,2.99999679 L14.5,2.99999679 C14.9940603,2.99999702 15,3.00593627 15,2.50593627 C15,2.01187599 15,2.00593627 14.5,2.00593627 L5.5,2.00593627 C5.00593972,2.00593627 5,2.01187599 5,2.50593627 Z" id="Rectangle-22" sketch:type="MSShapeGroup"></path>
            <path d="M5,8 C5,8.5 5.00593972,8.49406075 5.5,8.49406052 L14.5,8.49406052 C14.9940603,8.49406075 15,8.5 15,8 C15,7.50593972 15,7.5 14.5,7.5 L5.5,7.5 C5.00593972,7.5 5,7.50593972 5,8 Z" id="Rectangle-24" sketch:type="MSShapeGroup"></path>
            <path d="M5,13.5 C5,14 5.00593972,13.9940608 5.5,13.9940605 L14.5,13.9940605 C14.9940603,13.9940608 15,14 15,13.5 C15,13.0059397 15,13 14.5,13 L5.5,13 C5.00593972,13 5,13.0059397 5,13.5 Z" id="Rectangle-23" sketch:type="MSShapeGroup"></path>
        </g>
    </g>
</svg>