<?xml version="1.0" encoding="UTF-8" standalone="no"?>
<svg width="16px" height="16px" viewBox="0 0 16 16" version="1.1" xmlns="http://www.w3.org/2000/svg" xmlns:xlink="http://www.w3.org/1999/xlink" xmlns:sketch="http://www.bohemiancoding.com/sketch/ns">
    <!-- Generator: Sketch 3.1.1 (8761) - http://www.bohemiancoding.com/sketch -->
    <title>twitter</title>
    <desc>Created with Sketch.</desc>
    <defs></defs>
    <g id="production" stroke="none" stroke-width="1" fill="none" fill-rule="evenodd" sketch:type="MSPage">
        <g id="twitter" sketch:type="MSArtboardGroup" fill="#000000">
            <path d="M14.5549903,2.471 C14.4919903,2.464 14.3849903,2.454 14.2459903,2.445 C13.9569903,2.425 13.6629903,2.415 13.3859903,2.421 C13.2409903,2.424 13.1239903,2.441 12.9969903,2.453 C12.3789903,1.856 11.5769903,1.5 10.7109903,1.5 C8.83499031,1.5 7.32399031,3.094 7.32399031,5.047 C7.32399031,5.074 7.33199031,5.099 7.33299031,5.126 C5.39799031,4.837 3.64299031,3.806 2.39099031,2.225 C2.16999031,1.947 1.73899031,1.981 1.56399031,2.289 C1.26299031,2.82 1.10099031,3.427 1.10099031,4.058 C1.10099031,4.655 1.24999031,5.225 1.51399031,5.727 C1.29499031,5.769 1.10799031,5.942 1.10199031,6.194 C1.10199031,6.234 1.10199031,6.234 1.10099031,6.273 C1.10099031,7.33 1.55699031,8.287 2.28399031,8.927 C2.13799031,9.049 2.05499031,9.24 2.11699031,9.446 C2.41499031,10.435 3.11899031,11.203 4.01099031,11.59 C3.29399031,11.949 2.51099031,12.155 1.69399031,12.155 C1.48199031,12.155 1.27099031,12.142 1.06199031,12.116 C0.542990314,12.053 0.286990314,12.729 0.718990314,13.025 C2.11199031,13.982 3.74099031,14.5 5.44299031,14.5 C10.2279903,14.5 14.0959903,10.417 14.0959903,5.394 C14.0969903,5.331 14.0969903,5.331 14.0969903,5.223 C14.0979903,5.114 14.0979903,5.114 14.0979903,5.047 C14.0979903,5.009 14.1049903,5.085 14.0469903,4.503 C14.0419903,4.447 14.0339903,4.368 14.0259903,4.29 C14.4549903,3.968 14.6069903,3.783 14.9339903,3.218 C15.1159903,2.905 14.9139903,2.509 14.5549903,2.471 L14.5549903,2.471 Z M13.0519903,4.6 C13.0629903,4.709 13.0979903,5.066 13.0979903,5.047 C13.0969903,5.11 13.0969903,5.11 13.0969903,5.218 C13.0969903,5.327 13.0969903,5.327 13.0959903,5.394 C13.0959903,9.877 9.66399031,13.5 5.44299031,13.5 C4.55999031,13.5 2.32799031,12.875 2.32799031,12.875 C2.32799031,12.875 4.49899031,12.657 5.61499031,11.756 C5.98199031,11.46 5.77199031,10.867 5.30099031,10.867 C4.27099031,10.867 3.85899031,10.607 3.39599031,9.836 C3.39599031,9.836 3.80299031,9.791 4.13299031,9.678 C4.62399031,9.509 4.56499031,8.797 4.05299031,8.711 C2.68699031,8.5 2.18799031,6.942 2.18799031,6.942 C2.18799031,6.942 2.37199031,7.081 2.93799031,7.09 C3.43999031,7.097 3.63899031,6.443 3.21699031,6.17 C2.53099031,5.726 2.10099031,4.933 2.10099031,4.058 C2.10099031,3.903 2.18999031,3.515 2.18999031,3.515 C3.95299031,5.031 5.40199031,6.029 7.85599031,6.197 C8.18599031,6.22 8.44699031,5.921 8.37999031,5.597 C8.34299031,5.418 8.32499031,5.234 8.32499031,5.047 C8.32499031,3.634 9.39899031,2.5 10.7109903,2.5 C11.3759903,2.5 11.9979903,2.791 12.4469903,3.299 C12.5609903,3.428 12.7339903,3.49 12.9039903,3.461 C13.0399903,3.438 13.2109903,3.425 13.4079903,3.421 C13.4679903,3.419 13.5059903,3.419 13.5289903,3.418 C13.5389903,3.411 13.6059903,3.366 13.5339903,3.418 C13.5739903,3.418 13.5439903,3.42 13.5319903,3.42 C13.4879903,3.452 13.3969903,3.518 13.2109903,3.65 C13.0769903,3.746 12.9979903,3.903 13.0019903,4.068 C13.0019903,4.1 12.9899903,3.971 13.0519903,4.6 L13.0519903,4.6 Z" id="Imported-Layers" sketch:type="MSShapeGroup"></path>
        </g>
    </g>
</svg>