<?xml version="1.0" encoding="UTF-8" standalone="no"?>
<svg width="16px" height="16px" viewBox="0 0 16 16" version="1.1" xmlns="http://www.w3.org/2000/svg" xmlns:xlink="http://www.w3.org/1999/xlink" xmlns:sketch="http://www.bohemiancoding.com/sketch/ns">
    <!-- Generator: Sketch 3.1.1 (8761) - http://www.bohemiancoding.com/sketch -->
    <title>warning</title>
    <desc>Created with Sketch.</desc>
    <defs></defs>
    <g id="production" stroke="none" stroke-width="1" fill="none" fill-rule="evenodd" sketch:type="MSPage">
        <g id="warning" sketch:type="MSArtboardGroup" fill="#000000">
            <path d="M16,8 C16,3.581722 12.418278,0 8,0 C3.581722,0 0,3.581722 0,8 C0,12.418278 3.581722,16 8,16 C12.418278,16 16,12.418278 16,8 Z M1,8 C1,4.13400675 4.13400675,1 8,1 C11.8659932,1 15,4.13400675 15,8 C15,11.8659932 11.8659932,15 8,15 C4.13400675,15 1,11.8659932 1,8 Z" id="Oval-45" sketch:type="MSShapeGroup"></path>
            <path d="M6.21085235,3.79224503 L6.88333016,9.50830654 C6.94776512,10.0560037 7.4438648,10.5 7.99999998,10.5 C8.55228473,10.5 9.05235636,10.0549708 9.1166698,9.50830654 L9.78914764,3.79224503 C9.90559818,2.80241543 9.19054031,2 8.18725586,2 L7.81274414,2 C6.8115932,2 6.09407757,2.79965936 6.21085235,3.79224503 Z M8.18725586,3 C8.59217749,3 8.84247945,3.28030329 8.79599704,3.67540378 L8.1235192,9.39146529 C8.1184291,9.43473116 8.04498219,9.5 7.99999998,9.5 C7.95250925,9.5 7.88184937,9.43709847 7.87648076,9.3914653 L7.20400296,3.67540379 C7.15745201,3.27972077 7.40776465,3 7.81274414,3 L8.18725586,3 Z" id="Rectangle-32" sketch:type="MSShapeGroup"></path>
            <path d="M7.5,12.5 C7.5,12.2238576 7.72385763,12 8,12 C8.27614237,12 8.5,12.2238576 8.5,12.5 C8.5,12.7761424 8.27614237,13 8,13 C7.72385763,13 7.5,12.7761424 7.5,12.5 Z M9.5,12.5 C9.5,11.6715729 8.82842712,11 8,11 C7.17157288,11 6.5,11.6715729 6.5,12.5 C6.5,13.3284271 7.17157288,14 8,14 C8.82842712,14 9.5,13.3284271 9.5,12.5 Z" id="Oval-31" sketch:type="MSShapeGroup"></path>
        </g>
    </g>
</svg>