<?xml version="1.0" encoding="UTF-8" standalone="no"?>
<svg width="16px" height="16px" viewBox="0 0 16 16" version="1.1" xmlns="http://www.w3.org/2000/svg" xmlns:xlink="http://www.w3.org/1999/xlink" xmlns:sketch="http://www.bohemiancoding.com/sketch/ns">
    <!-- Generator: Sketch 3.1.1 (8761) - http://www.bohemiancoding.com/sketch -->
    <title>yes-no</title>
    <desc>Created with Sketch.</desc>
    <defs></defs>
    <g id="production" stroke="none" stroke-width="1" fill="none" fill-rule="evenodd" sketch:type="MSPage">
        <g id="yes-no" sketch:type="MSArtboardGroup" fill="#000000">
            <g id="Imported-Layers" sketch:type="MSLayerGroup" transform="translate(1.000000, 2.000000)">
                <path d="M12.144,8 L13.791,6.353 C13.986,6.158 13.986,5.842 13.791,5.646 C13.596,5.451 13.279,5.451 13.084,5.646 L11.437,7.293 L9.791,5.646 C9.596,5.451 9.279,5.451 9.084,5.646 C8.889,5.842 8.889,6.158 9.084,6.353 L10.73,8 L9.084,9.646 C8.889,9.842 8.889,10.158 9.084,10.353 C9.182,10.451 9.31,10.5 9.437,10.5 C9.565,10.5 9.693,10.451 9.791,10.353 L11.437,8.707 L13.084,10.353 C13.182,10.451 13.31,10.5 13.437,10.5 C13.565,10.5 13.693,10.451 13.791,10.353 C13.986,10.158 13.986,9.842 13.791,9.646 L12.144,8" id="Fill-1" sketch:type="MSShapeGroup"></path>
                <path d="M10.157,-0.449 C9.913,-0.567 9.61,-0.469 9.488,-0.22 L3.613,11.78 C3.492,12.028 3.595,12.328 3.843,12.449 C3.913,12.483 3.988,12.5 4.062,12.5 C4.247,12.5 4.425,12.398 4.512,12.22 L10.387,0.22 C10.508,-0.028 10.405,-0.328 10.157,-0.449" id="Fill-2" sketch:type="MSShapeGroup"></path>
                <path d="M6.75,0.192 C6.511,0.054 6.206,0.135 6.067,0.374 L2.98,6.537 L0.922,3.732 C0.773,3.499 0.464,3.43 0.231,3.578 C-0.002,3.726 -0.07,4.036 0.078,4.268 L2.578,7.768 C2.779,8.085 3.245,8.075 3.433,7.75 L6.933,0.875 C7.071,0.636 6.989,0.33 6.75,0.192" id="Fill-3" sketch:type="MSShapeGroup"></path>
            </g>
        </g>
    </g>
</svg>